graph TD
classDef eks fill:#F2ECE8,stroke:#333,stroke-width:1px;
classDef ns fill:#99C4C8,color:#fff,stroke:#333,stroke-width:1px;
classDef gke fill:#C3E5E9,stroke:#333,stroke-width:1px;
classDef pod fill:#E7ECEF,stroke:#333,stroke-width:1px;

subgraph crdb[CockroachDB Cluster]
    subgraph GKE
        subgraph db-crdb-gke[db-crdb namespace]
            gke-crdb-0
            gke-crdb-1
            gke-crdb-2
        end
    end
    subgraph EKS[EKS Prod 1]
        subgraph db-crdb-eks[db-crdb namespace]
            eks-crdb-0
            eks-crdb-1
            eks-crdb-2
        end
    end   
end

class GKE gke;
class EKS eks;
class db-crdb-gke,db-crdb-eks pod;