graph TD
classDef eks fill:#F2ECE8,stroke:#333,stroke-width:1px;
classDef ns fill:#99C4C8,color:#fff,stroke:#333,stroke-width:1px;
classDef gke fill:#C3E5E9,stroke:#333,stroke-width:1px;
classDef pod fill:#E7ECEF,stroke:#333,stroke-width:1px;

client[Client]
gclb[GCLB]
istio1[istio-ingressgateway Pod]
istio2[istio-ingressgateway Pod]
frontendgke1[frontend Pod]
frontendgke2[frontend Pod]
frontendeks1[frontend Pod]
frontendeks2[frontend Pod]

client -->|HTTPS using managed certificates|gclb
gclb -->|all client traffic flows through the istio-ingressgateway in the GKE clusters| istio1
gclb -->|all client traffic flows through the istio-ingressgateway in the GKE clusters| istio2
istio1 -.->|mTLS| frontendgke1
istio1 -.->|mTLS| frontendeks1
istio1 -.->|mTLS| frontendgke2
istio1 -.->|mTLS| frontendeks2
istio2 -.->|mTLS| frontendgke1
istio2 -.->|mTLS| frontendeks1
istio2 -.->|mTLS| frontendgke2
istio2 -.->|mTLS| frontendeks2

subgraph GKE1[GKE Prod 1]
    subgraph istio-system1[istio-system namespace]
        istio1
    end
    subgraph ob-prod-gke1[ob-frontend namespace]
        frontendgke1
    end
end

subgraph GKE2[GKE Prod 2]
    subgraph istio-system2[istio-system namespace]
        istio2
    end
    subgraph ob-prod-gke2[ob-frontend namespace]
        frontendgke2
    end
end

subgraph EKS1[EKS Prod 1]
    subgraph ob-prod-eks1[ob-frontend namespace]
        frontendeks1
    end
end

subgraph EKS2[EKS Prod 2]
    subgraph ob-prod-eks2[ob-frontend namespace]
        frontendeks2
    end
end

class GKE1,GKE2 gke;
class EKS1,EKS2 eks;
%%class istio-system1,ob-prod-gke1,ob-prod-eks1 ns;
class istio1,frontendgke1,frontendeks1,istio2,frontendgke2,frontendeks2 pod;
