graph LR
classDef pipeline fill:#FAFAC6,stroke:#333;

commit[commit to main] -->|6mins|Main[Main - Create custom builder] -->|2mins| Project_Setup[Project Setup - SSH Keys and GCP Service Accounts]
Project_Setup -->|7mins| Dev[Dev Pipeline - Sets up the dev environment]
Project_Setup --> |23mins|Stage[Stage Pipeline - Sets up the stage environment]
Project_Setup -->|26mins| Prod[Prod Pipeline - Sets up the prod environment]
Project_Setup -->|20mins| Gitlab[Gitlab and Repos - Sets up Gitlab and repos]

class Main,Project_Setup,Dev,Stage,Prod,Gitlab pipeline;
