graph LR
classDef aws fill:#F2ECE8,stroke:#333,stroke-width:2px;
classDef gcp fill:#99C4C8,stroke:#333,stroke-width:2px;
classDef mesh fill:#C3E5E9,stroke:#333,stroke-width:1px;
classDef anthos fill:#FAFAC6,stroke:#333,stroke-width:1px,stroke-dasharray: 5 5;

installer[Build Installer Image]

prodgcpvpc[Prod GCP VPC]
stagegcpvpc[Stage GCP VPC]
devgcpvpc[Dev GCP VPC]
prodgke[2 x Prod GKE w/ ACM]
stagegke[1 x Stage GKE w/ ACM]
devgke[2 x Dev GKE w/ ACM]

gitlab[Gitlab]
repos[Repos]
hub_gsa[Anthos Hub GCP SA]
cloudops_gsa[Cloud Ops GCP SA]
cicd_gsa[CICD GCP SA]
cnrm_gsa[Config Connector GCP SA]
gcr[Google Container Registry]
kcc[Anthos Config Connector]
autoneg[GKE Autoneg Controller]
ssh_key[SSH Key Pair for ACM and all repos]

prodawsvpc[Prod AWS VPC]
stageawsvpc[Stage AWS VPC]
prodeks[2 x Prod EKS w/ ACM]
stageeks[1 x Stage EKS w/ ACM]

prodasm[Prod ASM]
stageasm[Stage ASM]
devasm[Dev ASM]

ssh_key --> prodgcpvpc
ssh_key --> prodawsvpc

ssh_key --> stagegcpvpc
ssh_key --> stageawsvpc

ssh_key --> devgcpvpc

ssh_key --> gitlab -->|Create repos| repos

installer -->|Register Anthos clusters to Hub and store creds in GCS| hub_gsa
installer -->|For non-GCP clusters to send metrics to Cloud Ops and store creds in GCS| cloudops_gsa
installer -->|For CICD runners to deploy applications and store creds in GCS| cicd_gsa
installer -->|For Anthos Config Connector and store creds in GCS| cnrm_gsa
installer -->|Make GCR public for CICD runners to use installer image| gcr
installer -->|Create SSH key pair for ACM and all repos and store in GCS| ssh_key

ssh_key -.->|Public key as deploy token| repos

%%hub_gsa -.-> prodeks
%%hub_gsa -.-> stageeks

subgraph Gitlab_Pipeline
  gitlab
  repos
end

subgraph Project_Pipeline
  ssh_key
  gcr
  subgraph GCP Service Accounts
    hub_gsa
    cloudops_gsa
    cicd_gsa
    cnrm_gsa
  end
end

subgraph Main_Pipeline
  installer
end

subgraph Prod_Pipeline
  subgraph Prod
    subgraph GCP_Prod[GCP]
      prodgcpvpc --> prodgke
      prodgke --> kcc
      prodgke --> autoneg
    end
    subgraph AWS_Prod[AWS]
      prodawsvpc --> prodeks
    end
    subgraph ASM_Prod[ASM]
      prodgke -.-> prodasm
      prodeks -.-> prodasm
    end
  end
end

subgraph Stage_Pipeline
  subgraph Stage
    subgraph GCP_Stage[GCP]
      stagegcpvpc --> stagegke
    end
    subgraph AWS_Stage[AWS]
      stageawsvpc --> stageeks
    end
    subgraph ASM_Stage[ASM]
      stagegke -.-> stageasm
      stageeks -.-> stageasm
    end
  end
end

subgraph Dev_Pipeline
  subgraph Dev
    subgraph GCP_Dev[GCP]
      devgcpvpc --> devgke
    end
    subgraph ASM_Dev[ASM]
      devgke -.-> devasm
    end
  end
end

class AWS_Prod,AWS_Stage aws;
class GCP_Prod,GCP_Stage,GCP_Dev gcp;
class ASM_Prod,ASM_Stage,ASM_Dev mesh;
class Prod_Pipeline,Stage_Pipeline,Dev_Pipeline,Gitlab_Pipeline,Project_Pipeline,Main_Pipeline anthos;
