graph TD
classDef eks fill:#F2ECE8,stroke:#333,stroke-width:1px;
classDef ns fill:#99C4C8,color:#fff,stroke:#333,stroke-width:1px;
classDef gke fill:#C3E5E9,stroke:#333,stroke-width:1px;
classDef pod fill:#E7ECEF,stroke:#333,stroke-width:1px;

client[Client]
l4lb[L4 TCP LB Public IP Address]
istiogke[istio-ingressgateway Pod]
istioeks[istio-ingressgateway Pod]
frontendgke[frontend Pod]
frontendeks[frontend Pod]

client --> l4lb
l4lb -->|all client traffic flows through the istio-ingressgateway in the GKE cluster| istiogke
istiogke -->|mTLS| frontendgke
istiogke -->|mTLS| istioeks
istioeks -->|mTLS| frontendeks

subgraph GKE
    subgraph istio-system-gke[istio-system namespace]
        istiogke
    end
    subgraph ob-prod-gke[ob-prod namespace]
        frontendgke
    end
end

subgraph EKS
    subgraph istio-system-eks[istio-system namespace]
        istioeks
    end
    subgraph ob-prod-eks[ob-prod namespace]
        frontendeks
    end
end

class GKE gke;
class EKS eks;
%%class istio-system-gke,istio-system-eks,ob-prod-gke,ob-prod-eks ns;
class istiogke,istioeks,frontendgke,frontendeks pod;
